{
    "logs": [{
        "HB": "4732",
        "team": "2",
        "type": "0",
        "value": "0"
    }, {
        "HB": "5799",
        "team": "2",
        "type": "1",
        "value": "3"
    }, {
        "HB": "8077",
        "team": "2",
        "type": "1",
        "value": "2"
    }, {
        "HB": "8885",
        "team": "2",
        "type": "4",
        "value": "0"
    }, {
        "HB": "8920",
        "team": "2",
        "type": "2",
        "value": "1"
    }, {
        "HB": "8953",
        "team": "2",
        "type": "2",
        "value": "1"
    }, {
        "HB": "8986",
        "team": "2",
        "type": "2",
        "value": "1"
    }, {
        "HB": "10271",
        "team": "2",
        "type": "1",
        "value": "5"
    }, {
        "HB": "13121",
        "team": "2",
        "type": "1",
        "value": "7"
    }, {
        "HB": "16386",
        "team": "2",
        "type": "1",
        "value": "8"
    }, {
        "HB": "18902",
        "team": "2",
        "type": "1",
        "value": "7"
    }, {
        "HB": "21436",
        "team": "2",
        "type": "1",
        "value": "6"
    }, {
        "HB": "23601",
        "team": "2",
        "type": "1",
        "value": "5"
    }, {
        "HB": "26462",
        "team": "2",
        "type": "1",
        "value": "8"
    }, {
        "HB": "29744",
        "team": "2",
        "type": "1",
        "value": "8"
    }, {
        "HB": "30365",
        "team": "3",
        "type": "0",
        "value": "0"
    }, {
        "HB": "30599",
        "team": "2",
        "type": "0",
        "value": "0"
    }, {
        "HB": "31741",
        "team": "2",
        "type": "1",
        "value": "5"
    }, {
        "HB": "32554",
        "team": "3",
        "type": "0",
        "value": "0"
    }, {
        "HB": "-32487",
        "team": "2",
        "type": "0",
        "value": "0"
    }]
}