{
    "logs": [{
        "HB": "164",
        "team": "2",
        "type": "0",
        "value": "0"
    }, {
        "HB": "721",
        "team": "7",
        "type": "0",
        "value": "0"
    }, {
        "HB": "899",
        "team": "6",
        "type": "0",
        "value": "0"
    }, {
        "HB": "1013",
        "team": "2",
        "type": "0",
        "value": "0"
    }, {
        "HB": "2171",
        "team": "2",
        "type": "1",
        "value": "1"
    }, {
        "HB": "4852",
        "team": "2",
        "type": "1",
        "value": "2"
    }, {
        "HB": "7083",
        "team": "2",
        "type": "1",
        "value": "1"
    }, {
        "HB": "8756",
        "team": "7",
        "type": "0",
        "value": "0"
    }, {
        "HB": "10470",
        "team": "2",
        "type": "0",
        "value": "0"
    }, {
        "HB": "13059",
        "team": "8",
        "type": "0",
        "value": "0"
    }, {
        "HB": "14417",
        "team": "2",
        "type": "0",
        "value": "0"
    }, {
        "HB": "16185",
        "team": "2",
        "type": "1",
        "value": "6"
    }, {
        "HB": "18440",
        "team": "7",
        "type": "0",
        "value": "0"
    }, {
        "HB": "18678",
        "team": "2",
        "type": "0",
        "value": "0"
    }, {
        "HB": "19796",
        "team": "2",
        "type": "1",
        "value": "2"
    }, {
        "HB": "22415",
        "team": "2",
        "type": "1",
        "value": "2"
    }, {
        "HB": "23729",
        "team": "7",
        "type": "0",
        "value": "0"
    }, {
        "HB": "24788",
        "team": "2",
        "type": "0",
        "value": "0"
    }, {
        "HB": "26147",
        "team": "2",
        "type": "1",
        "value": "2"
    }, {
        "HB": "28278",
        "team": "7",
        "type": "0",
        "value": "0"
    }]
}