{
    "logs": [{
        "HB": "790",
        "team": "2",
        "type": "0",
        "value": "0"
    }, {
        "HB": "1537",
        "team": "3",
        "type": "0",
        "value": "0"
    }, {
        "HB": "2264",
        "team": "3",
        "type": "1",
        "value": "1"
    }, {
        "HB": "4431",
        "team": "3",
        "type": "1",
        "value": "1"
    }, {
        "HB": "6605",
        "team": "3",
        "type": "1",
        "value": "2"
    }, {
        "HB": "8771",
        "team": "3",
        "type": "1",
        "value": "1"
    }, {
        "HB": "11104",
        "team": "3",
        "type": "1",
        "value": "1"
    }, {
        "HB": "11681",
        "team": "2",
        "type": "0",
        "value": "0"
    }, {
        "HB": "11944",
        "team": "3",
        "type": "0",
        "value": "0"
    }, {
        "HB": "12849",
        "team": "3",
        "type": "1",
        "value": "2"
    }, {
        "HB": "13282",
        "team": "6",
        "type": "0",
        "value": "0"
    }, {
        "HB": "14064",
        "team": "3",
        "type": "0",
        "value": "0"
    }, {
        "HB": "15321",
        "team": "3",
        "type": "1",
        "value": "1"
    }, {
        "HB": "16383",
        "team": "2",
        "type": "0",
        "value": "0"
    }, {
        "HB": "17292",
        "team": "2",
        "type": "1",
        "value": "1"
    }, {
        "HB": "17345",
        "team": "6",
        "type": "0",
        "value": "0"
    }, {
        "HB": "17786",
        "team": "3",
        "type": "0",
        "value": "0"
    }, {
        "HB": "18514",
        "team": "3",
        "type": "1",
        "value": "1"
    }, {
        "HB": "20873",
        "team": "3",
        "type": "1",
        "value": "2"
    }, {
        "HB": "23209",
        "team": "3",
        "type": "1",
        "value": "1"
    }, {
        "HB": "26253",
        "team": "3",
        "type": "1",
        "value": "2"
    }]
}