{
    "logs": [{
        "HB": "4316",
        "team": "7",
        "type": "0",
        "value": "0"
    }, {
        "HB": "4475",
        "team": "6",
        "type": "0",
        "value": "0"
    }, {
        "HB": "4521",
        "team": "2",
        "type": "0",
        "value": "0"
    }, {
        "HB": "5146",
        "team": "7",
        "type": "0",
        "value": "0"
    }, {
        "HB": "8400",
        "team": "7",
        "type": "1",
        "value": "5"
    }, {
        "HB": "11322",
        "team": "7",
        "type": "1",
        "value": "2"
    }, {
        "HB": "13539",
        "team": "7",
        "type": "1",
        "value": "1"
    }, {
        "HB": "17661",
        "team": "7",
        "type": "1",
        "value": "3"
    }, {
        "HB": "19850",
        "team": "7",
        "type": "1",
        "value": "1"
    }, {
        "HB": "22657",
        "team": "7",
        "type": "1",
        "value": "2"
    }, {
        "HB": "24573",
        "team": "2",
        "type": "0",
        "value": "0"
    }, {
        "HB": "24654",
        "team": "7",
        "type": "0",
        "value": "0"
    }, {
        "HB": "26908",
        "team": "6",
        "type": "0",
        "value": "0"
    }, {
        "HB": "28426",
        "team": "6",
        "type": "1",
        "value": "3"
    }, {
        "HB": "28819",
        "team": "7",
        "type": "0",
        "value": "0"
    }]
}