{
    "logs": [{
        "HB": "378",
        "team": "2",
        "type": "0",
        "value": "0"
    }, {
        "HB": "1596",
        "team": "2",
        "type": "1",
        "value": "1"
    }, {
        "HB": "1763",
        "team": "3",
        "type": "0",
        "value": "0"
    }, {
        "HB": "2384",
        "team": "2",
        "type": "0",
        "value": "0"
    }, {
        "HB": "2529",
        "team": "3",
        "type": "0",
        "value": "0"
    }, {
        "HB": "3331",
        "team": "3",
        "type": "1",
        "value": "1"
    }, {
        "HB": "5017",
        "team": "2",
        "type": "0",
        "value": "0"
    }, {
        "HB": "6172",
        "team": "3",
        "type": "0",
        "value": "0"
    }, {
        "HB": "6898",
        "team": "3",
        "type": "1",
        "value": "3"
    }, {
        "HB": "7330",
        "team": "2",
        "type": "0",
        "value": "0"
    }, {
        "HB": "7863",
        "team": "3",
        "type": "0",
        "value": "0"
    }, {
        "HB": "8598",
        "team": "3",
        "type": "1",
        "value": "1"
    }, {
        "HB": "11028",
        "team": "3",
        "type": "1",
        "value": "2"
    }, {
        "HB": "11238",
        "team": "6",
        "type": "0",
        "value": "0"
    }, {
        "HB": "12016",
        "team": "3",
        "type": "0",
        "value": "0"
    }, {
        "HB": "12789",
        "team": "3",
        "type": "1",
        "value": "1"
    }, {
        "HB": "15203",
        "team": "3",
        "type": "1",
        "value": "2"
    }, {
        "HB": "16659",
        "team": "2",
        "type": "0",
        "value": "0"
    }, {
        "HB": "17578",
        "team": "2",
        "type": "1",
        "value": "1"
    }, {
        "HB": "17619",
        "team": "7",
        "type": "0",
        "value": "0"
    }, {
        "HB": "18091",
        "team": "3",
        "type": "0",
        "value": "0"
    }, {
        "HB": "19680",
        "team": "3",
        "type": "1",
        "value": "2"
    }, {
        "HB": "21848",
        "team": "3",
        "type": "1",
        "value": "1"
    }, {
        "HB": "24014",
        "team": "3",
        "type": "1",
        "value": "2"
    }, {
        "HB": "26191",
        "team": "3",
        "type": "1",
        "value": "2"
    }, {
        "HB": "27149",
        "team": "2",
        "type": "0",
        "value": "0"
    }, {
        "HB": "27922",
        "team": "2",
        "type": "1",
        "value": "1"
    }]
}